*** Life<FredkinCell> 31x2 ***

Generation = 0, Population = 13.
--
-0
00
--
-0
--
--
--
--
0-
--
-0
--
--
--
--
--
0-
00
--
--
--
--
--
--
--
00
-0
--
-0
--

Generation = 1, Population = 23.
-0
-1
1-
0-
0-
-0
--
--
0-
-0
00
0-
-0
--
--
--
0-
1-
-1
00
--
--
--
--
--
00
1-
-1
--
0-
-0

Generation = 2, Population = 29.
01
-2
2-
-0
1-
--
-0
0-
--
01
--
10
--
-0
--
0-
10
2-
02
1-
00
--
--
--
00
-1
20
--
00
--
--

*** Life<FredkinCell> 42x26 ***

Generation = 0, Population = 30.
-------------------------0
----------0---------------
--------0---------------0-
--------------------------
--------------------------
--------------------------
--------------------------
------------0----------0--
------0----0--0-----------
--------------------------
--------------------------
--------------------------
--------------------------
-0------------------------
--------------------------
--------------------------
------------0-------------
--0-----------0----------0
--------------------------
--------------------------
--------------------------
--------------------------
--------------------------
--------------------------
-----------------0--------
--------------------------
----0------0--------------
-----0--------------------
0--0----------------------
-------------0------------
--------------------------
--------------------------
---------------0----------
---0----------------------
--0--0--------------------
----0---------------------
--------------------------
-------------------0------
--------------------------
--------------------------
--------------------------
--0-----------0-----0-----

Generation = 2, Population = 115.
--------0--------------01-
--------1---0-------------
------0---1-----------0--1
----------0---------------
--------0---------------0-
------------0----------0--
------0----0--0-----------
----------0---1------0---0
----0---00--01--0---------
------------0----------0--
------0----0--0-----------
-0------------------------
--------------------------
---0----------------------
------------0-------------
-00-----------0----------0
----------0---1-----------
0---0-------1---0------0-0
------------0-------------
--0-----------0----------0
--------------------------
--------------------------
-----------------0--------
--------------------------
----0------0---0---0------
-----0--------------------
0-01--0--0---0---0--------
---1---0-----0------------
011-11-----0--------------
-----0-----0---0----------
0--0-----------0----------
---0---------0------------
--0--0-------0---0--------
-0--11--------------------
0--00--0-------0----------
--11--0------------0------
--0--0--------------------
----0------------0---0----
--------------------------
--0-----------0----00-----
--------------------------
0-0-0-------0-0-0-0-0-0---

*** Life<FredkinCell> 21x4 ***

Generation = 0, Population = 25.
----
----
0-0-
0---
-0--
---0
---0
-0--
00--
000-
0-0-
----
0--0
--0-
----
0---
-0--
-0-0
00--
0---
-0--

*** Life<FredkinCell> 25x30 ***

Generation = 0, Population = 5.
------------------------------
------------------------------
------------------------------
-----------------------0------
------------------------------
---0--------------------------
------------------------------
------------------------------
--------------0---------------
------------------------------
------------------------------
----------------0-------------
------------------------------
------------------------------
------------------------------
------------------------------
---------------0--------------
------------------------------
------------------------------
------------------------------
------------------------------
------------------------------
------------------------------
------------------------------
------------------------------

*** Life<FredkinCell> 41x11 ***

Generation = 0, Population = 14.
-----------
-0-0-------
-----------
-----------
-----------
-----------
---------0-
-----------
----------0
----------0
-----------
-----------
-0---------
-----------
-----------
-----------
-----------
-0---------
-----------
-----------
-----------
-----------
-0---------
-----------
-----0-----
-----------
----0------
----0------
-----------
-----------
-----------
-----------
--0--------
-----------
-----------
-----------
-----------
-----------
--0--------
-----0-----
-----------

Generation = 4, Population = 53.
-----------
---0-0-0---
---------0-
-----------
----------1
-0-0------1
-----0---1-
-----------
-0----0-0--
------0-2--
---------1-
-----------
-0---0----1
-1--------0
-----------
-----------
-1---------
-0---0-----
-1---------
-----------
-----0-----
-1---------
-0--00-----
----1------
-0-------0-
-----------
01------0--
0-------0--
--1--1-----
-----------
----1------
----1------
0-----0----
-----------
--0--------
-----0-----
--0--------
-----------
0-----0----
-0---0---0-
--0--------

*** Life<FredkinCell> 50x25 ***

Generation = 0, Population = 45.
------0--------0---------
-------------------------
---------0------------0--
-------------------------
-------------------------
----0------------------0-
-------------0---------0-
------0--------------0---
--------0----------------
----0--------------------
-----0-------------------
---------0-------0-0-----
-------------------------
----------0--------------
-------------------------
--------------0-0--------
-------------------------
------0------------------
-------------------------
-------------------------
-------------------------
-------------------------
------------0------------
-------------------------
0------------------------
--------------0----------
---0--0--------0---------
-------------------------
-------------------------
-------------------------
-0-----------------------
------------------0------
-------------------------
--------------0----------
-------------------------
-------------------------
------0----------------0-
-------------------------
------------0------------
-------------------------
--------------0----------
-----0-------------------
-------0-0---------------
-------------------------
-------------------------
------------------------0
-----0----------------0--
--------------0--0-------
--0----------0-----0-----
---------------0---------

Generation = 3, Population = 400.
---0----110-0-----0--0-0-
----0--000-0-0---0--0-0-0
----00110-0-0-0-0--0-0---
---0-000-0-0-0-0----0--1-
--0-0---0-0-0-0------01-0
-0-0----00-0-0-0-----001-
--0-0--0100-0-0-0--00-0--
---0--002000-0-0--0-00-0-
--0--1200--00-0--0---00-0
-0---000-----0--0-----00-
------0-1-00---0---------
------01-0210-0-------0--
------0000000-000----0---
-----0-01200----11--0----
------0-000------000-----
-----0-0-0---------0-----
----0-0-0-0-0-----0------
---0-0-0-0---0---0-------
----0-0-0-----0-0--------
-----0-0----0------------
------0----0-0-----------
0---------0-0-0----------
-0-------0-0-010---------
--00--0---0-001----------
--1100-0---010-----------
-000000-0--01------------
11002200-0--------0------
0--0000-0--------0-------
0---00-0--------0-0------
-0----0--------0-0-0-----
--0-0---------0-0-0-0----
-0-0---------0---0-0-0---
0-0---------0-0---0-0----
-0----0----0-0-0---0---0-
-----0-0----0-0-0-0---0-0
----0-0-0---00-0-----0-0-
---0-0-0-0-0-00-----0-0--
----0-0-0-0-0--------0-0-
-------0-0-0----------0-0
----0--0-00-----0------0-
---0-001--0----0-0-------
--0-000-0--0--0-0--------
---002-1----00-0--------0
----0-0----0--0-------00-
----01----0---0--0---010-
--00-0---0-----00-00002-1
-0110-0-0-------000-1000-
0-0000-0----------02-0001
-0-0110---0--0-20-0001100
0---00-----002--00---00--

*** Life<FredkinCell> 44x24 ***

Generation = 0, Population = 29.
-----------0-0----------
---0--------------------
-----0-------------0----
---0--------------------
------------------------
------0-----------------
------------------------
------------------------
------------------------
------------------------
---------------------0--
------------------------
------------------------
--0---------------------
------------------------
------------------------
------------------------
------------------------
------------------------
------------------------
--0--------------0------
------------------------
---------------0--------
--0---------------------
-------0-0--------------
------------------------
-------0-0-------------0
--0-0---------------0---
--------0---------------
------------------------
------------------------
----0-------------------
------------------------
------------------------
--------0-----------0---
---------------------0--
------------------------
------------------------
-----------------0------
------------------------
------------------------
------0---0-------------
------------------------
------------------------

Generation = 2, Population = 93.
-----0---0-----0---0----
-0-0-1------------------
---0---0---0-0---0---0--
-0-0-10-----------------
-----0-------------0----
---00---0---------------
------------------------
------0-----------------
---------------------0--
------------------------
-------------------0---0
--0---------------------
---------------------0--
0---0-------------------
------------------------
--0---------------------
------------------------
------------------------
--0--------------0------
------------------------
0---0--------------0----
--1---------------------
--1----0-0---0----------
0---0-------------------
-----0-----0---0-------0
----0---------------0---
-----0--0--0---------0-0
0-0-0-0-----------0---0-
------01-10------------0
--0-----------------0---
--------0---------------
--0---0-----------------
--------0-----------0---
----0----------------0--
------0---0-------0---0-
-------------------0---0
--------0--------0--0---
---------------------0--
---------------0---0----
------0---0-------------
-----------------0------
----0-------0-----------
------------------------
------0---0-------------

*** Life<FredkinCell> 1x10 ***

Generation = 0, Population = 8.
--00000000

*** Life<FredkinCell> 49x38 ***

Generation = 0, Population = 17.
--------------------------------------
--------------------------------------
-------------------------------0------
--------------------------------------
--------------------------------------
--------------------------------0-----
--------------------------------------
--------------------------------------
--------------------------------------
--------------------------------------
--------------------------------------
--------------------------------------
--------------------------------------
--------------------0-----------------
--------------------------------------
---------------0-------------0--------
----------0---------------------------
--------------------------------------
--------------------------------------
-----------------------------------0--
--------------------------------------
--------------------------------------
--------------0-----------------------
--------------------------------------
--------------------------------------
-----0--------------------------------
----------------0---------------------
--------------------------------------
--------------------0-----------------
--------------------------------------
------------0------------------------0
--------------------------------------
--------------------------------------
--------------------------------------
----------------------------0---------
--------------------------------------
--------------------------------------
--------------------------------------
--------------------------------------
--------------------------------------
--------------------------------------
--------------------------------------
--0-----------------------------------
--------------------------------------
-------------0------------------------
--------------------------------------
--------------------------------------
--------------------------------------
--------------------------------0-----

Generation = 1, Population = 66.
--------------------------------------
-------------------------------0------
------------------------------0-0-----
-------------------------------0------
--------------------------------0-----
-------------------------------0-0----
--------------------------------0-----
--------------------------------------
--------------------------------------
--------------------------------------
--------------------------------------
--------------------------------------
--------------------0-----------------
-------------------0-0----------------
---------------0----0--------0--------
----------0---0-0-----------0-0-------
---------0-0---0-------------0--------
----------0---------------------------
-----------------------------------0--
----------------------------------0-0-
-----------------------------------0--
--------------0-----------------------
-------------0-0----------------------
--------------0-----------------------
-----0--------------------------------
----0-0---------0---------------------
-----0---------0-0--------------------
----------------0---0-----------------
-------------------0-0----------------
------------0-------0----------------0
-----------0-0----------------------0-
------------0------------------------0
--------------------------------------
----------------------------0---------
---------------------------0-0--------
----------------------------0---------
--------------------------------------
--------------------------------------
--------------------------------------
--------------------------------------
--------------------------------------
--0-----------------------------------
-0-0----------------------------------
--0----------0------------------------
------------0-0-----------------------
-------------0------------------------
--------------------------------------
--------------------------------0-----
-------------------------------0-0----

*** Life<FredkinCell> 16x2 ***

Generation = 0, Population = 14.
--
-0
--
00
0-
--
00
--
00
00
--
-0
--
-0
00
--

*** Life<FredkinCell> 27x37 ***

Generation = 0, Population = 19.
-------------------------------------
-------------------------------------
---------0---------------------------
-------------------------------------
---------------------0---------------
-------------------------------------
-------------------------------0-----
-------------------------------------
-------------------------------------
-------------------------------------
----------------------0-------0------
-------------------------------------
-------------------------------------
--------------------0----------------
-----------------------------0-------
------------------0------------------
-------------------------------------
-----------------------------0-------
------------------------------0------
-------------------------------------
-------------------0---0-------------
-------------------------------------
----------------------------------0--
-----------------0-------------------
-------0-----------------------------
-------------------0-----------------
--0-----------0-------0--------------

Generation = 2, Population = 65.
---------0---------------------------
-------------------------------------
-------0---0---------0---------------
-------------------------------------
---------0---------0---0-------0-----
-------------------------------------
---------------------0-------0---0---
-------------------------------------
----------------------0-------00-----
-------------------------------------
--------------------0---0---0---0----
--------------------0----------------
----------------------0------00------
----------------------0--------------
---------------------------0---0-----
----------------0------------1-------
-----------------------------10------
------------------0--------0---0-----
-------------------0---0----0---0----
-----------------------------0-------
-----------------0-------0----0---0--
-----------------0-------------------
-------0-----------0---0--------0---0
---------------0---------------------
--0--0---0----0-------0-----------0--
---------------------0---------------
0-0-0--0----0-0-0---0-0-0------------

*** Life<FredkinCell> 36x7 ***

Generation = 0, Population = 34.
-------
-------
-0---0-
-----00
-0----0
0------
-------
-0----0
-------
--00---
-----0-
--0----
-------
00----0
-------
----0--
-------
-------
-------
----0--
-------
----000
-----0-
0-0----
0------
---0---
0------
-----0-
-----0-
0------
-------
0--0---
-------
-------
----0--
-----0-

Generation = 1, Population = 89.
-------
-0---0-
0-0-01-
----0--
--0---1
------0
00----0
0-0--0-
-000--0
-01100-
---00-0
-0-0-0-
000---0
110--0-
00--0-0
---0-0-
----0--
-------
----0--
---0-0-
-----00
---0111
0-0--1-
1--0-0-
1000---
--0-0--
-0-0-0-
0---010
0---010
-0---0-
---0---
-00-0--
0--0---
----0--
---0---
------0

Generation = 2, Population = 81.
-0---0-
-----10
-0----0
0--01-0
-0-0002
000--0-
-1----1
1-1-0-0
-----0-
0-2-110
---1---
-1010-0
-----0-
2--0--0
-------
000----
-------
-------
-------
--0-01-
-----1-
0--1---
1--0---
--01-10
--1--0-
001----
--0--1-
1------
1--0---
--00-1-
-----0-
-11--0-
----0--
0--0-0-
--0---0
---0-0-

Generation = 3, Population = 133.
0-0-01-
----0--
--000--
-00--0-
010-11-
1-1--10
020-0-2
-0---01
----010
---1221
000200-
02-210-
000---0
-10-0--
-000--0
1-10---
000----
-------
--0-00-
-0--1-0
0-00-20
100211-
20--010
10----1
1---01-
1-20---
--100-0
2000-1-
20-101-
001--20
-0-00-0
0220-10
000--0-
-0--0--
00-0-0-
-------

Generation = 4, Population = 92.
-----20
0------
-------
--1-110
-21-22-
---00--
-3-----
-1--0-2
-0----1
00-----
-1---1-
13--2--
-------
-210-0-
-----0-
2-2-0-0
-------
00--00-
-----1-
--0-2-1
1------
2113221
31---2-
2-0--12
--1-12-
2---000
--2-11-
-111-2-
31---2-
--200--
0---1--
--3-0--
-----1-
0----0-
1---0-0
00-0-0-

*** Life<FredkinCell> 28x27 ***

Generation = 0, Population = 7.
---------------------------
--------------------------0
---------------------------
---------------------------
---------------------------
---------------------------
---------------------------
---------------------------
---------------------------
---------------------------
---------------------------
---------------------------
------------------------0--
---------------------------
0-------------0------------
---------------------------
---------------------------
---------------------------
----0----------------------
---------------------------
---------------------------
---------------------0-----
---------------------------
---------------------------
----------------0----------
---------------------------
---------------------------
---------------------------

*** Life<FredkinCell> 23x43 ***

Generation = 0, Population = 49.
-----------0---0-----------0---------------
-0---0---------------------0------0--------
--------------0------------------------0---
-------------0----0-----------------0------
-------------------------------0-----------
0-----------------------------0------------
---------------------------------------0---
-0--------0------------0----0----------0---
-0--------------------0--------------------
-------------------------------------------
----0-------0------------------------------
---------0--------------------------------0
-----00-----------------------------0------
----------------------------------------0--
------------------------0------------------
----------0--------0------------------0----
--------------------------------0----------
---------------------------------00--------
----------0------0-------------------------
-------------------------------------------
0---------------0---------------0----------
--------------0----------0-----0-----------
---------0------0------------------0-------

*** Life<FredkinCell> 7x4 ***

Generation = 0, Population = 7.
0-0-
-0-0
----
-0--
---0
--0-
----

*** Life<FredkinCell> 38x8 ***

Generation = 0, Population = 34.
---00---
--------
----0-0-
--------
----0---
--------
-0----0-
--------
--------
--------
--------
----0---
--------
-0------
--0---0-
--------
0-------
0----0--
-0------
----0-0-
----00-0
------0-
----0---
----0---
--------
--------
--0-----
--------
0----0--
---0----
-0------
-------0
--------
--------
0----0-0
----0---
--------
--0-----

*** Life<FredkinCell> 7x30 ***

Generation = 0, Population = 36.
--0-0---0----------00---------
--------00-----0--------00----
---------00-0---0------0------
-----0-0-----0----0-------0---
----------00-0--------------0-
-------0--------------00----0-
---00-0----0---0-----0----00--

Generation = 3, Population = 110.
-0---00031---0-0112---1-0--0--
0-0--11-0-1100----10-0--110---
-0-0-0----10110-0---110-020--0
---1----20-----0200-1-1--2000-
--0-10-010--0300100-0102--0-1-
-00-00---10-0-000--01111-----0
01-3--0-112001----0-01-212-3--

*** Life<FredkinCell> 47x31 ***

Generation = 0, Population = 13.
--------------0----------------
-------------------------------
-------------------------------
--0----------------------------
-------------------------------
-------------------------------
-------------------------------
-------------------------------
-------------------------------
-------------------------------
----0--------------------------
-------------------------------
-------------------------------
-------------------------------
-------------------------------
-------------------------------
-------------------------------
-------------------------------
---------00--------------------
-------------------------------
-------------------------0-----
-------------------------------
--0---------------------------0
-------------------------------
-------------------------------
--------------0----------------
-------------------------------
--------------0----------------
-------------------------------
-------------------------------
-------------------------------
-------------------------------
-------------------------------
-------------------------------
-------------------------------
----------0--------------------
-------------------------------
-------------------------------
--------------0---------0------
-------------------------------
-------------------------------
-------------------------------
-------------------------------
-------------------------------
-------------------------------
-------------------------------
-------------------------------

Generation = 4, Population = 51.
----------0-------0------------
-------------------------------
--------------0----------------
0-----0------------------------
--------------0----------------
-------------------------------
----0--------------------------
--0----------------------------
-------------------------------
-------------------------------
0-------0----------------------
-------------------------------
-------------------------------
-------------------------------
----0----00--------------------
-------------------------------
-------------------------0-----
-------------------------------
--0--01------10---------------0
-------------------------------
---------------------0-------1-
--------------0----------------
0-----0--00---------------1-0--
--------------0----------------
-------------------------0-----
----------0-------0------------
--0---------------------------0
----------0-------0------------
-------------------------------
--------------0----------------
-------------------------------
----------0---0----------------
-------------------------------
-------------------------------
--------------0---------0------
------0-------1----------------
-------------------------------
-------------------------------
----------1-------0-0-------0--
----------0--------------------
-------------------------------
-------------------------------
--------------0---------0------
-------------------------------
-------------------------------
-------------------------------
-------------------------------

*** Life<FredkinCell> 23x43 ***

Generation = 0, Population = 47.
------------0-----------------------0------
------0-------0----------------------------
---------0--------0---00-------------------
--------------------------0----------------
-----------------------------0-------------
---------------0---------------------------
------------------0------------------------
---------0------------0--------------------
---------------------0---------------------
---0-------00--------0-----------0---------
-------0----------0-----0------------------
--------0----------------0-----------------
-------0--0---------------------------0----
-------------0--0-----------0--------------
-------------------------------------------
---------------------------0--------0------
---------------------------------0---------
------------0---------------0--------------
----------------------------------------0--
-------------------------------------------
0------------------0---------------0-----0-
----0----0------------------------------00-
---------------0---------0-----------------

Generation = 1, Population = 165.
------0----0-00--------------------0-0-----
-----0-0-0--00-0--0---00------------0------
------0-0-0---0--0-0-0110-0----------------
---------0--------0---00-0-0-0-------------
---------------0----------0-0-0------------
--------------0-0-0----------0-------------
---------0-----0-0-0--0--------------------
--------0-0-------0----0-------------------
---0-----0-00-------01-----------0---------
--0-0--0--0110----0-010-0-------0-0--------
---0--0----00----0-0-0-0---------0---------
-------0-00-------0-------0-----------0----
------0--0-0-0--0--------0--0--------0-0---
-------0--0-0-00-0---------0-0--------0----
-------------0--0----------00-------0------
--------------------------0-0----0-0-0-----
------------0--------------00---0-0-0------
-----------0-0-------------0-0---0------0--
------------0---------------0----------0-0-
0------------------0---------------0----00-
-0--0----0--------0-0-------------0-0----10
0--0-0--0-0----0---0-----0---------0---01-0
----0----0----0-0-------0-0-------------00-

Generation = 2, Population = 168.
---------00-0-1---0---00----------0-0-0----
----0---0---1---0---------0----------------
-------0---00---0----1--10---0------0------
------0-------00--------0---0--------------
---------0------------00---0---0-----------
---------0---0---0----0---0----------------
----------------0---00-------0-------------
---0---0----0--0----00--0--------0---------
-------0-----------0---00------------------
-0---0--0-1--10----0--10-0-----0---0-------
-----0-0-00-----0---010---0-----------0----
---0--0---1000--0----0-0---00----0---------
-----0-001--0-----0-----0-----------0---0--
--------0--0--11--0------001--0-----0------
-------0--0----------------------0----0----
------------00--0--------0---0----0---0----
-------------------------------0---0----0--
----------0---0-----------01--0-----0------
0------------------0-------------0-0--0--10
----0----0--0---------------0-----------11-
0-0------------0-0---0---0-------0---0-00--
--0---00---0--------------------------01--1
0------------0-0-0-0---0-0-0-------0-----1-

*** Life<FredkinCell> 30x2 ***

Generation = 0, Population = 6.
--
--
-0
--
--
--
--
--
--
--
--
--
--
--
--
--
-0
--
--
--
--
--
-0
--
--
-0
--
--
-0
0-

Generation = 3, Population = 18.
0-
--
0-
--
0-
-0
--
--
--
--
--
--
--
-0
0-
--
0-
--
0-
--
0-
--
01
0-
0-
0-
--
12
-1
-0

*** Life<FredkinCell> 3x15 ***

Generation = 0, Population = 23.
0000-------0-00
-0000----00-0-0
0-00----0000--0

Generation = 3, Population = 19.
1--11---1--12--
2--1--11---1---
0-10-11----300-

*** Life<FredkinCell> 5x32 ***

Generation = 0, Population = 4.
------------------------0-------
---0----------------------------
-----------------------------0--
--------------------------------
--------------0-----------------

Generation = 1, Population = 14.
---0-------------------0-0------
--0-0-------------------0----0--
---0------------------------0-0-
--------------0--------------0--
-------------0-0----------------

Generation = 2, Population = 15.
----------------------0-0-0--0--
-0---0--------------------------
--------------0---------0--0---0
---0----------------------------
------------0-0-0------------0--

Generation = 3, Population = 39.
-0---0---------------0-----00-0-
0-0-0-0-------0-------0---00-0-0
-0-0-0-------0-0-------0-00-0-0-
--0-0-------0---0-------0--0-0-0
---0-------0-----0----------0-0-

Generation = 4, Population = 14.
--------------0-----0-------10--
---0---0------------------------
--------------0---------01-----0
--------------------------------
----------0-------0-----0----0--

Generation = 5, Population = 43.
---0---0-----0-0---0-0-----0210-
--0-0-0-0-----------0---00--00-0
---0---0-----0-0-------0120---0-
----------0---0---0------0---0-0
---------0-0-----0-0---0-0--0-0-

*** Life<FredkinCell> 4x40 ***

Generation = 0, Population = 17.
---------0--0--0-0-----0------0---------
-----0----------------------------------
---0---------0------0-----00------------
------------0-------------0-----0---0-0-

Generation = 3, Population = 86.
--010-01-1-----0--01-1---11-1---10--0-0-
-00200010-00-00--000000-002--0-010-0---0
0-0002000-01100-0110-01-1201---0----0-0-
-0--010----01--0-00---0-10--101--0------

*** Life<FredkinCell> 34x32 ***

Generation = 0, Population = 18.
--------------------------------
--------------------------------
--------------------------------
--------0-----------------------
--------------------------------
---------0----------------------
-----------0--------------------
--------------------------------
------------------0-------------
--------------------------------
--------------------------------
--------------------------0-----
--------------------------------
--------------------------------
--------------------------------
-----------------------------0--
--------------------------------
----------------0---------------
----------------0---------------
--------------------------------
---0----------------------------
--------------------------------
--------------------------------
--------------------0-----------
-----------------------0--------
-------------------------0-----0
--------------------------------
--------------------------0-----
--------------------------------
--------------------------------
-----------0---------0----------
0-------------------------------
0-------------------------------
--------------------------------

Generation = 3, Population = 228.
--------0-----------------------
-------0-0----------------------
------0-000---------------------
-----0-0021---------------------
------0000-10-------------------
------012-0200----0-------------
-------0-2000-0--0-0------------
--------0100-0--0-0-0-----------
---------00-0--0-0-0-0----0-----
-----------0----0-0-0----0-0----
-----------------0-0----0-0-0---
------------------0----0-0-0-0--
------------------------0-0-00--
-------------------------0-00-0-
----------------0---------00-0-0
---------------010--------0-0-0-
--------------00200--------0-0-0
---0---------0101010--------0-0-
--0-0--------0101010---------0--
-0-0-0--------00200-------------
0-0-0-0--------010--0-----------
-0-0-0----------0--0-0-0--------
--0-0-------------0-0---00-----0
---0-------------0-0----010---0-
------------------0----002-0-0--
-------------------0--020-21----
--------------------0-01-00000--
-----------0---------0--1200-00-
0---------0-0-------0-0-000-0--0
10-------0-0-0-----0-0-0-0-0----
-00-----0-0-0-0---0-0-0-0-0-----
--10-----0-0-0-----0-0-0--------
--10------0-0-------0-0---------
200--------0---------0----------

*** Life<FredkinCell> 46x11 ***

Generation = 0, Population = 4.
-----------
-----------
-----------
-----------
-----------
-----------
---0-------
-----------
-----------
-----------
-----------
-----------
-----------
-----------
-----------
-----------
-----------
-----------
-----------
---0-------
-----------
-----------
-----------
-----------
-----------
-----------
-----------
-----------
-----------
-----------
-----------
-----------
-----------
-----------
-----------
-----------
-----------
-----------
-----------
-----------
-----------
----------0
-----------
-----------
0----------
-----------

Generation = 1, Population = 14.
-----------
-----------
-----------
-----------
-----------
---0-------
--0-0------
---0-------
-----------
-----------
-----------
-----------
-----------
-----------
-----------
-----------
-----------
-----------
---0-------
--0-0------
---0-------
-----------
-----------
-----------
-----------
-----------
-----------
-----------
-----------
-----------
-----------
-----------
-----------
-----------
-----------
-----------
-----------
-----------
-----------
-----------
----------0
---------0-
----------0
0----------
-0---------
0----------

Generation = 2, Population = 15.
-----------
-----------
-----------
-----------
---0-------
-----------
-0---0-----
-----------
---0-------
-----------
-----------
-----------
-----------
-----------
-----------
-----------
-----------
---0-------
-----------
-0---0-----
-----------
---0-------
-----------
-----------
-----------
-----------
-----------
-----------
-----------
-----------
-----------
-----------
-----------
-----------
-----------
-----------
-----------
-----------
-----------
----------0
-----------
--------0-0
0----------
----------0
0-0--------
-----------

Generation = 3, Population = 45.
-----------
-----------
-----------
---0-------
--0-0------
-0-0-0-----
0-0-0-0----
-0-0-0-----
--0-0------
---0-------
-----------
-----------
-----------
-----------
-----------
-----------
---0-------
--0-0------
-0-0-0-----
0-0-0-0----
-0-0-0-----
--0-0------
---0-------
-----------
-----------
-----------
-----------
-----------
-----------
-----------
-----------
-----------
-----------
-----------
-----------
-----------
-----------
-----------
----------0
---------0-
--------0--
0------0---
-0------0--
--0------0-
---0------0
0-0--------

Generation = 4, Population = 14.
-----------
-----------
---0-------
-----------
-----------
-----------
-------0---
-----------
-----------
-----------
---0-------
-----------
-----------
-----------
-----------
---0-------
-----------
-----------
-----------
-------0---
-----------
-----------
-----------
---0-------
-----------
-----------
-----------
-----------
-----------
-----------
-----------
-----------
-----------
-----------
-----------
-----------
-----------
----------0
-----------
-----------
0----------
------0-0--
-----------
-----------
0-0-0------
----------0

Generation = 5, Population = 45.
-----------
---0-------
--0-0------
---0-------
-----------
-------0---
------0-0--
-------0---
-----------
---0-------
--0-0------
---0-------
-----------
-----------
---0-------
--0-0------
---0-------
-----------
-------0---
------0-0--
-------0---
-----------
---0-------
--0-0------
---0-------
-----------
-----------
-----------
-----------
-----------
-----------
-----------
-----------
-----------
-----------
-----------
----------0
---------0-
----------0
0----------
-0----0-0--
0----0---0-
------0-0--
0-0-0------
-----0----0
0-0-0----0-
